…
Enough of the theoretical talk, let's get your hands dirty.

Let's use the PISA data.

```r
library(tidyverse)
url <- "https://raw.githubusercontent.com/cimentadaj/tidyverse_seminars/master/first_seminar/data/pisa2015.csv"
student <- read_csv(url) %>%
  filter(!is.na(FISCED))
student
```

```
# A tibble: 9,302 × 921
   CNTRYID                  CNT CNTSCHID CNTSTUID   CYC NatCen   Region
     <int>                <chr>    <dbl>    <dbl> <chr>  <chr>    <chr>
1      780  Trinidad and Tobago 78000022 78001092  06MS 078000 Americas
2      784 United Arab Emirates 78400393 78412661  06MS 078400     Asia
3      442           Luxembourg 44200016 44201761  06MS 044200   Europe
4      792               Turkey 79200019 79201420  06MS 079200     Asia
5      428               Latvia 42800134 42802282  06MS 042800   Europe
6       76               Brazil  7600667  7622701  06MS 007600 Americas
7      246              Finland 24600112 24604748  06MS 024600   Europe
8      788              Tunisia 78800105 78801159  06MS 078800   Africa
9      643   Russian Federation 64300108 64304364  06MS 064300   Europe
10     203       Czech Republic 20300280 20302661  06MS 020300   Europe
# ... with 9,292 more rows, and 914 more variables: STRATUM <chr>,
#   SUBNATIO <chr>, OECD <int>, ADMINMODE <int>, Option_CPS <int>,
#   Option_FL <int>, Option_ICTQ <int>, Option_ECQ <int>, Option_PQ <int>,
#   Option_TQ <int>, Option_UH <int>, Option_Read <chr>,
#   Option_Math <chr>, LANGTEST_QQQ <dbl>, LANGTEST_COG <int>,
#   LANGTEST_PAQ <dbl>, CBASCI <dbl>, BOOKID <int>, ST001D01T <int>,
#   ST003D02T <int>, ST003D03T <int>, ST004D01T <int>, ST005Q01TA <dbl>,
#   ST006Q01TA <dbl>, ST006Q02TA <dbl>, ST006Q03TA <dbl>,
#   ST006Q04TA <dbl>, ST007Q01TA <dbl>, ST008Q01TA <dbl>,
…
Loops, apply family and purrr package.
========================================================

Briefly, `nest` is a function that turns chunks of data frames into lists.

```r
(student_nested <-
  student %>%
  group_by(CNT) %>%
  nest())
```

```
# A tibble: 69 × 2
                    CNT                 data
                  <chr>               <list>
1   Trinidad and Tobago  <tibble [84 × 920]>
2  United Arab Emirates <tibble [270 × 920]>
3            Luxembourg  <tibble [95 × 920]>
4                Turkey  <tibble [98 × 920]>
5                Latvia  <tibble [93 × 920]>
6                Brazil <tibble [406 × 920]>
7               Finland <tibble [119 × 920]>
8               Tunisia  <tibble [92 × 920]>
9    Russian Federation <tibble [125 × 920]>
10       Czech Republic <tibble [126 × 920]>
# ... with 59 more rows
```
…
Each country `tibble` has `920` columns all in upper case. First, let's turn all the columns into `lowercase`. 
- The `data` column is a list, so we can `map` through that list, change the column names to lower case and return the new data frame.
- We will obtain a list containing each tibble with the lowercase column names and replace the existing `data` column.


```r
student_nested %>%
  mutate(data = map(data, function(country_tibble) {
    names(country_tibble) <- tolower(names(country_tibble))
    country_tibble
}))
```

```
# A tibble: 69 × 2
                    CNT                 data
                  <chr>               <list>
1   Trinidad and Tobago  <tibble [84 × 920]>
2  United Arab Emirates <tibble [270 × 920]>
3            Luxembourg  <tibble [95 × 920]>
4                Turkey  <tibble [98 × 920]>
5                Latvia  <tibble [93 × 920]>
6                Brazil <tibble [406 × 920]>
7               Finland <tibble [119 × 920]>
8               Tunisia  <tibble [92 × 920]>
9    Russian Federation <tibble [125 × 920]>
10       Czech Republic <tibble [126 × 920]>
# ... with 59 more rows
```
…
```r
(student_nested <-
  student_nested %>%
  mutate(data = map(data, function(country_tibble) {
    names(country_tibble) <- tolower(names(country_tibble))
    
    country_tibble %>%
      rename(math = pv1math, father_edu = misced, gender = st004d01t) %>%
      select(math, father_edu, gender)
})))
```

```
# A tibble: 69 × 2
                    CNT               data
                  <chr>             <list>
1   Trinidad and Tobago  <tibble [84 × 3]>
2  United Arab Emirates <tibble [270 × 3]>
3            Luxembourg  <tibble [95 × 3]>
4                Turkey  <tibble [98 × 3]>
5                Latvia  <tibble [93 × 3]>
6                Brazil <tibble [406 × 3]>
7               Finland <tibble [119 × 3]>
8               Tunisia  <tibble [92 × 3]>
9    Russian Federation <tibble [125 × 3]>
10       Czech Republic <tibble [126 × 3]>
# ... with 59 more rows
```
…
- Pipe `student_nested` to `mutate` and create a new variable called `mean_math`.
- Inside `mean_math` specify `map_dbl` as the function and the column `data` as the first argument of `map_dbl`.
- Finally, copy the `anonymous function` from before as the function argument of `map_dbl`.
  
Loops, apply family and purrr package.
========================================================

```r
student_nested %>%
  mutate(mean_math = map_dbl(data, function(country_data) mean(country_data$math, na.rm = T)))
```

```
# A tibble: 69 × 3
                    CNT               data mean_math
                  <chr>             <list>     <dbl>
1   Trinidad and Tobago  <tibble [84 × 3]>  410.8914
2  United Arab Emirates <tibble [270 × 3]>  429.1818
3            Luxembourg  <tibble [95 × 3]>  486.0579
4                Turkey  <tibble [98 × 3]>  414.0818
5                Latvia  <tibble [93 × 3]>  487.9166
6                Brazil <tibble [406 × 3]>  374.2518
7               Finland <tibble [119 × 3]>  504.5360
8               Tunisia  <tibble [92 × 3]>  356.6824
9    Russian Federation <tibble [125 × 3]>  497.7577
10       Czech Republic <tibble [126 × 3]>  511.8730
# ... with 59 more rows
```
…
Loops, apply family and purrr package.
========================================================
### Answer:


```r
student_nested %>%
  mutate(mean_math = map_dbl(data, function(country_data) mean(country_data$math, na.rm = T)),
         lower_bound = map_dbl(data, function(country_data) our_ci(country_data$math)[1]),
         upper_bound = map_dbl(data, function(country_data) our_ci(country_data$math)[2]))
```

```
# A tibble: 69 × 5
                    CNT               data mean_math lower_bound
                  <chr>             <list>     <dbl>       <dbl>
1   Trinidad and Tobago  <tibble [84 × 3]>  410.8914    208.9468
2  United Arab Emirates <tibble [270 × 3]>  429.1818    229.3306
3            Luxembourg  <tibble [95 × 3]>  486.0579    298.5919
4                Turkey  <tibble [98 × 3]>  414.0818    258.5891
5                Latvia  <tibble [93 × 3]>  487.9166    341.5515
6                Brazil <tibble [406 × 3]>  374.2518    203.1531
7               Finland <tibble [119 × 3]>  504.5360    350.6053
8               Tunisia  <tibble [92 × 3]>  356.6824    184.9170
9    Russian Federation <tibble [125 × 3]>  497.7577    337.0385
10       Czech Republic <tibble [126 × 3]>  511.8730    335.5443
# ... with 59 more rows, and 1 more variables: upper_bound <dbl>
```
…
Loops, apply family and purrr package.
========================================================
The function to compute linear modeling is `lm` and the workflow is the same if you're using the pipe.

Think about this code:


```r
student_nested %>%
  mutate(lm_model = map(data, function(country_data) lm(math ~ father_edu + gender, data=country_data)))
```

```
# A tibble: 69 × 3
                    CNT               data lm_model
                  <chr>             <list>   <list>
1   Trinidad and Tobago  <tibble [84 × 3]> <S3: lm>
2  United Arab Emirates <tibble [270 × 3]> <S3: lm>
3            Luxembourg  <tibble [95 × 3]> <S3: lm>
4                Turkey  <tibble [98 × 3]> <S3: lm>
5                Latvia  <tibble [93 × 3]> <S3: lm>
6                Brazil <tibble [406 × 3]> <S3: lm>
7               Finland <tibble [119 × 3]> <S3: lm>
8               Tunisia  <tibble [92 × 3]> <S3: lm>
9    Russian Federation <tibble [125 × 3]> <S3: lm>
10       Czech Republic <tibble [126 × 3]> <S3: lm>
# ... with 59 more rows
```
…
Loops, apply family and purrr package.
========================================================


```r
library(broom)

student_nested %>%
  mutate(lm = map(data, function(country_data)
    tidy(lm(math ~ father_edu + gender, data=country_data))))
```

```
# A tibble: 69 × 3
                    CNT               data                   lm
                  <chr>             <list>               <list>
1   Trinidad and Tobago  <tibble [84 × 3]> <data.frame [3 × 5]>
2  United Arab Emirates <tibble [270 × 3]> <data.frame [3 × 5]>
3            Luxembourg  <tibble [95 × 3]> <data.frame [3 × 5]>
4                Turkey  <tibble [98 × 3]> <data.frame [3 × 5]>
5                Latvia  <tibble [93 × 3]> <data.frame [3 × 5]>
6                Brazil <tibble [406 × 3]> <data.frame [3 × 5]>
7               Finland <tibble [119 × 3]> <data.frame [3 × 5]>
8               Tunisia  <tibble [92 × 3]> <data.frame [3 × 5]>
9    Russian Federation <tibble [125 × 3]> <data.frame [3 × 5]>
10       Czech Republic <tibble [126 × 3]> <data.frame [3 × 5]>
# ... with 59 more rows
```
…
Loops, apply family and purrr package.
========================================================
To finish, we `unnest` the `lm` column to compare slopes.


```r
(student_lm <-
  student_nested %>%
  mutate(
    lm = map(data, function(country_data) tidy(lm(math ~ father_edu + gender, data=country_data)))) %>%
  unnest(lm))
```

```
# A tibble: 207 × 6
                    CNT        term   estimate std.error statistic
                  <chr>       <chr>      <dbl>     <dbl>     <dbl>
1   Trinidad and Tobago (Intercept) 394.015422 42.600657  9.249046
2   Trinidad and Tobago  father_edu  15.532577  6.297611  2.466424
3   Trinidad and Tobago      gender -25.597254 22.427857 -1.141315
4  United Arab Emirates (Intercept) 373.096271 26.752898 13.946013
5  United Arab Emirates  father_edu  11.032378  3.896668  2.831234
6  United Arab Emirates      gender   2.425185 12.341152  0.196512
7            Luxembourg (Intercept) 408.709193 40.838981 10.007821
8            Luxembourg  father_edu   6.907076  5.269616  1.310736
9            Luxembourg      gender  31.916418 20.917358  1.525834
10               Turkey (Intercept) 411.335247 26.489628 15.528162
# ... with 197 more rows, and 1 more variables: p.value <dbl>
```
…
