…
Tibbles and data frames
========================================================

Tibbles are exactly as data frames with a few tweaks. Let's visit each difference separately.

1st. Printing

```r
library(tidyverse)
pisa <- as_tibble(pisa_2015)
pisa
```

```
# A tibble: 10,000 × 921
   CNTRYID                  CNT CNTSCHID CNTSTUID    CYC NatCen   Region
     <int>               <fctr>    <dbl>    <dbl> <fctr>  <int>   <fctr>
1      780  Trinidad and Tobago 78000022 78001092   06MS  78000 Americas
2      784 United Arab Emirates 78400393 78412661   06MS  78400     Asia
3      442           Luxembourg 44200016 44201761   06MS  44200   Europe
4      792               Turkey 79200019 79201420   06MS  79200     Asia
5      428               Latvia 42800134 42802282   06MS  42800   Europe
6       76               Brazil  7600667  7622701   06MS   7600 Americas
7      246              Finland 24600112 24604748   06MS  24600   Europe
8      788              Tunisia 78800105 78801159   06MS  78800   Africa
9      643   Russian Federation 64300108 64304364   06MS  64300   Europe
10     203       Czech Republic 20300280 20302661   06MS  20300   Europe
# ... with 9,990 more rows, and 914 more variables: STRATUM <fctr>,
#   SUBNATIO <int>, OECD <int>, ADMINMODE <int>, Option_CPS <int>,
#   Option_FL <int>, Option_ICTQ <int>, Option_ECQ <int>, Option_PQ <int>,
#   Option_TQ <int>, Option_UH <int>, Option_Read <fctr>,
#   Option_Math <fctr>, LANGTEST_QQQ <dbl>, LANGTEST_COG <int>,
#   LANGTEST_PAQ <dbl>, CBASCI <dbl>, BOOKID <int>, ST001D01T <int>,
#   ST003D02T <int>, ST003D03T <int>, ST004D01T <int>, ST005Q01TA <dbl>,
#   ST006Q01TA <dbl>, ST006Q02TA <dbl>, ST006Q03TA <dbl>,
#   ST006Q04TA <dbl>, ST007Q01TA <dbl>, ST008Q01TA <dbl>,
…
I think we all know what a tidy dataset is but these principles are not informative.

What is a tidy dataset? tidyr
========================================================

What ISN'T a tidy dataset?


```r
pisa %>%
  select(CNTSTUID, starts_with("ST098Q0"))
```

```
# A tibble: 10,000 × 9
   CNTSTUID ST098Q01TA ST098Q02TA ST098Q03NA ST098Q05TA ST098Q06TA
      <dbl>      <dbl>      <dbl>      <dbl>      <dbl>      <dbl>
1  78001092          1          4          4          4          3
2  78412661          1          2          2          2          3
3  44201761         NA         NA         NA         NA         NA
4  79201420          1          1          1          1          3
5  42802282          1          3          2          3          1
6   7622701          1          4          2          4          2
7  24604748          3          3          4          3          3
8  78801159          2         NA          3          3          2
9  64304364          2          3          2          3          2
10 20302661          2          4          4          4          2
# ... with 9,990 more rows, and 3 more variables: ST098Q07TA <dbl>,
#   ST098Q08NA <dbl>, ST098Q09TA <dbl>
```
…
How do we fix a case of: Column headers are values, not variable names

We use tidyr's `gather()` function.


```r
pisa %>%
  select(CNTSTUID, starts_with("ST098Q0")) %>%
  gather(school_science, answers, -CNTSTUID)
```

```
# A tibble: 80,000 × 3
   CNTSTUID school_science answers
      <dbl>          <chr>   <dbl>
1  78001092     ST098Q01TA       1
2  78412661     ST098Q01TA       1
3  44201761     ST098Q01TA      NA
4  79201420     ST098Q01TA       1
5  42802282     ST098Q01TA       1
6   7622701     ST098Q01TA       1
7  24604748     ST098Q01TA       3
8  78801159     ST098Q01TA       2
9  64304364     ST098Q01TA       2
10 20302661     ST098Q01TA       2
# ... with 79,990 more rows
```
…
What is a tidy dataset? tidyr
========================================================

Other messy data problem:

How do we fix a case of: Multiple variables stored in one column


```r
who %>%
  select(country, year, starts_with("new_sp_"))
```

```
# A tibble: 7,240 × 16
       country  year new_sp_m014 new_sp_m1524 new_sp_m2534 new_sp_m3544
         <chr> <int>       <int>        <int>        <int>        <int>
1  Afghanistan  1980          NA           NA           NA           NA
2  Afghanistan  1981          NA           NA           NA           NA
3  Afghanistan  1982          NA           NA           NA           NA
4  Afghanistan  1983          NA           NA           NA           NA
5  Afghanistan  1984          NA           NA           NA           NA
6  Afghanistan  1985          NA           NA           NA           NA
7  Afghanistan  1986          NA           NA           NA           NA
8  Afghanistan  1987          NA           NA           NA           NA
9  Afghanistan  1988          NA           NA           NA           NA
10 Afghanistan  1989          NA           NA           NA           NA
# ... with 7,230 more rows, and 10 more variables: new_sp_m4554 <int>,
#   new_sp_m5564 <int>, new_sp_m65 <int>, new_sp_f014 <int>,
#   new_sp_f1524 <int>, new_sp_f2534 <int>, new_sp_f3544 <int>,
#   new_sp_f4554 <int>, new_sp_f5564 <int>, new_sp_f65 <int>
```
…
```r
tidy_dat %>%
  mutate(age = gsub("new_sp_", "", age)) %>%
  separate(age, c("gender", "age"), sep = 1)
```

```
# A tibble: 101,360 × 5
       country  year gender   age value
*        <chr> <int>  <chr> <chr> <int>
1  Afghanistan  1980      m   014    NA
2  Afghanistan  1981      m   014    NA
3  Afghanistan  1982      m   014    NA
4  Afghanistan  1983      m   014    NA
5  Afghanistan  1984      m   014    NA
6  Afghanistan  1985      m   014    NA
7  Afghanistan  1986      m   014    NA
8  Afghanistan  1987      m   014    NA
9  Afghanistan  1988      m   014    NA
10 Afghanistan  1989      m   014    NA
# ... with 101,350 more rows
```
…
