…
- Why tidyVERSE?

First..
=======================================================

```r
library(tidyverse)
```

Data visualization
========================================================


```
# A tibble: 173 × 11
   major_code                                 major
        <int>                                 <chr>
1        1100                   GENERAL AGRICULTURE
2        1101 AGRICULTURE PRODUCTION AND MANAGEMENT
3        1102                AGRICULTURAL ECONOMICS
4        1103                       ANIMAL SCIENCES
5        1104                          FOOD SCIENCE
6        1105            PLANT SCIENCE AND AGRONOMY
7        1106                          SOIL SCIENCE
8        1199             MISCELLANEOUS AGRICULTURE
9        1301                 ENVIRONMENTAL SCIENCE
10       1302                              FORESTRY
# ... with 163 more rows, and 9 more variables: major_category <chr>,
#   total <int>, employed <int>, employed_full_time_year_round <int>,
#   unemployed <int>, unemployment_rate <dbl>, median <int>, p25th <int>,
#   p75th <dbl>
```
…
[all geoms](http://sape.inf.usi.ch/quick-reference/ggplot2/geom)  
[all ggplot2 extensions](http://www.ggplot2-exts.org/gallery/)

Data visualization
========================================================

Let's look at the data again..


```
# A tibble: 173 × 11
   major_code                                 major
        <int>                                 <chr>
1        1100                   GENERAL AGRICULTURE
2        1101 AGRICULTURE PRODUCTION AND MANAGEMENT
3        1102                AGRICULTURAL ECONOMICS
4        1103                       ANIMAL SCIENCES
5        1104                          FOOD SCIENCE
6        1105            PLANT SCIENCE AND AGRONOMY
7        1106                          SOIL SCIENCE
8        1199             MISCELLANEOUS AGRICULTURE
9        1301                 ENVIRONMENTAL SCIENCE
10       1302                              FORESTRY
# ... with 163 more rows, and 9 more variables: major_category <chr>,
#   total <int>, employed <int>, employed_full_time_year_round <int>,
#   unemployed <int>, unemployment_rate <dbl>, median <int>, p25th <int>,
#   p75th <dbl>
```
…
